Making maps with gfwr
…
The gfwr function get_raster() provides
aggregated gridded (e.g. raster) data for AIS-based apparent fishing
effort. It was designed to provide data for a specific region, offering
users the ability to select from multiple built-in region types by
specifying a specific Exclusive Economic Zone (EEZ), Marine Protected
Area (MPA), or Regional Fisheries Management Organization (RFMO).

The list of available regions for each type, and their
label and id, can be accessed with the
get_regions() function.

eez_regions <- get_regions(region_source = 'EEZ')

eez_regions
#> # A tibble: 282 × 3
#>       id label                                                         iso3 
#>    <int> <chr>                                                         <chr>
#>  1  5675 Estonia                                                       EST  
#>  2 48944 Mayotte                                                       FRA  
#>  3 50170 Overlapping claim Qatar / Saudi Arabia / United Arab Emirates QAT  
#>  4  8475 Cameroon                                                      CMR  
#>  5  5676 Finland                                                       FIN  
#>  6  8340 Bassas da India                                               FRA  
#>  7  8435 Faeroe                                                        DNK  
#>  8  8488 Gilbert Islands                                               KIR  
#>  9 48971 Overlapping claim: Venezuela / Colombia / Dominican Republic  COL  
#> 10  8474 Nigeria                                                       NGA  
#> # ℹ 272 more rows
…
In this case, let’s request data during our time range at 100th
degree resolution and grouped by flag State:

# Download data for the Italian EEZ
eez_fish_df <- get_raster(
  spatial_resolution = "HIGH",
  temporal_resolution = "YEARLY",
  group_by = "FLAG",
  start_date = start_date,
  end_date = end_date,
  region = ita_eez_code$id,
  region_source = "EEZ"
  )

#> # A tibble: 69,492 × 6
#>      Lat   Lon `Time Range` flag  `Vessel IDs` `Apparent Fishing Hours`
#>    <dbl> <dbl>        <dbl> <chr>        <dbl>                    <dbl>
#>  1  42.4 15.5          2021 ITA              2                     1.9 
#>  2  40.7 18.1          2021 ITA              2                     6.1 
#>  3  44.5 12.9          2021 ITA              1                     2.05
#>  4  42.9 10.6          2021 ITA              3                    11.6 
#>  5  39.6  8.32         2021 ITA              1                     1.87
#>  6  44.0 13.1          2021 ITA              6                    11.6 
#>  7  42.6 10.4          2021 ITA              1                     2.97
#>  8  42.0 15.9          2021 ITA              4                     3.99
#>  9  41.6 16.6          2021 ITA              2                     2.02
#> 10  38.4 16.6          2021 ITA              2                     4.08
#> # ℹ 69,482 more rows
…
# Download data for the IOTC
iotc_fish_df <- get_raster(
  spatial_resolution = "LOW",
  temporal_resolution = "YEARLY",
  group_by = "GEARTYPE",
  start_date = start_date,
  end_date = end_date,
  region = "IOTC",
  region_source = "RFMO"
  )

#> # A tibble: 106,061 × 6
#>      Lat   Lon `Time Range` geartype           `Vessel IDs` `Apparent Fishing Hours`
#>    <dbl> <dbl>        <dbl> <chr>                     <dbl>                    <dbl>
#>  1  -7.6  47.8         2021 drifting_longlines            8                    38.2 
#>  2  -8    79.8         2021 drifting_longlines            2                     5.72
#>  3 -36.4 137.          2021 inconclusive                  5                    19.0 
#>  4  -9    65.6         2021 drifting_longlines            1                     0.27
#>  5  -7.1  40.9         2021 drifting_longlines            1                     1.49
#>  6  -7.9  54           2021 drifting_longlines            4                     7.33
#>  7  26.1  52.6         2021 fishing                       2                    11.5 
#>  8 -36.2  42.9         2021 drifting_longlines            1                     2.51
#>  9  -7.2  45.7         2021 drifting_longlines            6                    15.7 
#> 10  -5.2  47.4         2021 drifting_longlines            6                    16.0 
#> # ℹ 106,051 more rows
…
